module gitlab.com/lokaventour/proto

go 1.12

require (
	github.com/golang/protobuf v1.4.1
	github.com/grpc-ecosystem/grpc-gateway v1.13.0
	google.golang.org/genproto v0.0.0-20200526211855-cb27e3aa2013
	google.golang.org/grpc v1.27.1
	google.golang.org/protobuf v1.25.0
)
